open-sans						;	'Open Sans',sans-serif					; Open Sans							;	300		;	normal		;		family=Open+Sans:300
open-sans-italic				;	'Open Sans',sans-serif					; Open Sans Italic					;	300		;	italic 		; 		family=Open+Sans:300italic
open-sans-bold-italic			;	'Open Sans',sans-serif					; Open Sans Bold Italic				;	600		;	italic 		; 		family=Open+Sans:600italic
open-sans-condensed				;	'Open Sans Condensed',sans-serif		; Open Sans Condensed 				; 	300		; 	normal		;		family=Open+Sans+Condensed:300
open-sans-condensed-italic		;	'Open Sans Condensed',sans-serif		; Open Sans Condensed Italic		; 	300		; 	italic		;		family=Open+Sans+Condensed:300italic
open-sans-condensed-bold		;	'Open Sans Condensed',sans-serif		; Open Sans Condensed Bold			; 	700		; 	normal		;		family=Open+Sans+Condensed:700
droid-sans						;	'Droid Sans',sans-serif					; Droid Sans 						;	400		;	normal 		; 		family=Droid+Sans
oswald 							;	'Oswald',sans-serif 					; Oswald							; 	300 	; 	normal 		; 		family=Oswald:300
yanone							;	'Yanone Kaffeesatz', sans-serif			; Yanone							;	400		;	normal		;		family=Yanone+Kaffeesatz
francois-one					;	'Francois One', sans-serif				; Francois One						; 	400		; 	normal		; 		family=Francois+One
dosis							;	'Dosis', sans-serif						; Dosis								; 	400		; 	normal		;		family=Dosis
roboto							;	'Roboto', sans-serif					; Roboto							;	400		;	normal		;		family=Roboto
roboto-book						;	'Roboto', sans-serif					; Roboto Book						;	300		;	normal		;		family=Roboto:300
roboto-condensed				;	'Roboto Condensed', sans-serif			; Roboto Condensed					;	400		;	normal		;		family=Roboto+Condensed
roboto-condensed-book			;	'Roboto Condensed', sans-serif			; Roboto Condensed Book				;	300 	;	normal		;		family=Roboto+Condensed:300
pt-sans-narrow					;	'PT Sans Narrow', sans-serif			; PT Sans Narrow					;  	400		;	normal		;		family=PT+Sans+Narrow
pt-sans-narrow-bold				;	'PT Sans Narrow', sans-serif			; PT Sans Narrow Bold				;  	700		;	normal		;		family=PT+Sans+Narrow:700
lora							;	'Lora', serif							; Lora								;	400		; 	normal		;		family=Lora
lora-italic						;	'Lora', serif							; Lora Italic						;	400		; 	italic		;		family=Lora:400italic
lora-bold						;	'Lora', serif							; Lora Bold							;	700		;	normal		;		family=Lora:700
lora-bold-italic				;	'Lora', serif							; Lora Bold	Italic					;	700		;	italic		;		family=Lora:700italic
