{
	"IcoMoonType": "selection",
	"icons": [
		{
			"icon": {
				"paths": [
					"M192 768v-320c0-141.376 114.624-256 256-256h256c22.144 0 43.584-0.32 64-0.32-0.064-105.856-85.952-191.68-191.808-191.68h-384.384c-105.92 0-191.808 85.888-191.808 191.808v384.384c0 105.92 85.888 191.808 191.808 191.808h0.192z",
					"M832.192 256h-384.384c-105.92 0-191.808 85.888-191.808 191.808v384.384c0 105.92 85.888 191.808 191.808 191.808h384.384c105.92 0 191.808-85.888 191.808-191.808v-384.384c0-105.92-85.888-191.808-191.808-191.808zM896 832.192c0 34.816-28.544 63.808-63.808 63.808h-384.384c-34.816 0-63.808-28.544-63.808-63.808v-384.384c0-34.816 28.544-63.808 63.808-63.808h384.384c34.816 0 63.808 28.544 63.808 63.808v384.384z"
				],
				"attrs": [],
				"isMulticolor": false,
				"grid": 0,
				"tags": [
					"layers15"
				]
			},
			"attrs": [],
			"properties": {
				"order": 31,
				"id": 14,
				"prevSize": 32,
				"code": 59648,
				"name": "shadow"
			},
			"setIdx": 0,
			"setId": 6,
			"iconIdx": 0
		},
		{
			"icon": {
				"paths": [
					"M384 0h128v128h-128v-128z",
					"M0 128h128v128h-128v-128z",
					"M128 0h128v128h-128v-128z",
					"M0 640h128v128h-128v-128z",
					"M0 384h128v128h-128v-128z",
					"M384 512h128v128h-128v-128z",
					"M896 0h128v128h-128v-128z",
					"M640 0h128v128h-128v-128z",
					"M768 896h128v128h-128v-128z",
					"M896 768h128v128h-128v-128z",
					"M256 128h128v128h-128v-128z",
					"M896 256h128v128h-128v-128z",
					"M896 512h128v128h-128v-128z",
					"M256 896h128v128h-128v-128z",
					"M512 896h128v128h-128v-128z",
					"M768 128h128v128h-128v-128z",
					"M0 896h128v128h-128v-128z",
					"M128 768h128v128h-128v-128z",
					"M640 512h128v128h-128v-128z",
					"M640 768h128v128h-128v-128z",
					"M640 256h128v128h-128v-128z",
					"M512 640h128v128h-128v-128z",
					"M512 128h128v128h-128v-128z",
					"M384 768h128v128h-128v-128z",
					"M256 384h128v128h-128v-128z",
					"M768 640h128v128h-128v-128z",
					"M768 384h128v128h-128v-128z",
					"M128 512h128v128h-128v-128z",
					"M384 256h128v128h-128v-128z",
					"M256 640h128v128h-128v-128z",
					"M512 384h128v128h-128v-128z",
					"M128 256h128v128h-128v-128z"
				],
				"attrs": [],
				"isMulticolor": false,
				"grid": 0,
				"tags": [
					"pattern"
				]
			},
			"attrs": [],
			"properties": {
				"order": 32,
				"id": 13,
				"prevSize": 32,
				"code": 59649,
				"name": "opacity"
			},
			"setIdx": 0,
			"setId": 6,
			"iconIdx": 1
		},
		{
			"icon": {
				"paths": [
					"M877.714 356.571v-128h-109.714v-128h-768v548.571h128v146.286h128v128h768v-566.857h-146.286zM950.857 850.286h-621.714v-420.571h621.714v420.571zM73.143 173.714h621.714v54.857h-566.857v347.429h-54.857v-402.286zM201.143 649.143v-347.429h603.429v54.857h-548.571v365.714h-54.857v-73.143z"
				],
				"attrs": [],
				"isMulticolor": false,
				"grid": 0,
				"tags": [
					"folder23"
				]
			},
			"attrs": [],
			"properties": {
				"order": 33,
				"id": 12,
				"prevSize": 32,
				"code": 59650,
				"name": "background"
			},
			"setIdx": 0,
			"setId": 6,
			"iconIdx": 2
		},
		{
			"icon": {
				"paths": [
					"M1024 243.751l-515.169-156.807-508.831 442.117 214.035 65.15-214.035 186.020 515.169 156.827 508.831-442.098-214.035-65.208 214.035-186.001zM156.112 495.79l371.132-322.463 340.664 103.694-371.132 322.463-340.664-103.694zM867.927 528.191l-371.152 322.483-340.702-103.714 145.195-126.203 213.9 65.111 225.976-196.299 126.783 38.622z"
				],
				"attrs": [],
				"isMulticolor": false,
				"grid": 0,
				"tags": [
					"graphics-editor80"
				]
			},
			"attrs": [],
			"properties": {
				"order": 34,
				"id": 11,
				"prevSize": 32,
				"code": 59651,
				"name": "layers"
			},
			"setIdx": 0,
			"setId": 6,
			"iconIdx": 3
		},
		{
			"icon": {
				"paths": [
					"M1020.655 107.541l-232.999 232.999 140.407 60.885c4.7 2.044 7.465 6.987 6.758 12.054-0.694 5.067-4.73 9.058-9.805 9.717l-349.726 45.728c-3.504 0.457-7.040-0.752-9.539-3.244-2.499-2.499-3.711-6.019-3.254-9.547l45.715-349.715c0.33-2.552 1.494-4.857 3.238-6.577 1.715-1.712 3.959-2.882 6.49-3.238 5.057-0.707 10.010 2.058 12.036 6.758l60.893 140.418 233.002-233.007c4.464-4.44 11.661-4.424 16.122 0.016l80.663 80.647c4.464 4.432 4.464 11.637 0 16.106zM448.743 555.107l-349.71 45.712c-5.091 0.659-9.114 4.65-9.821 9.728-0.707 5.057 2.044 9.994 6.758 12.036l140.426 60.893-233.018 233.002c-4.448 4.464-4.448 11.677 0 16.138l80.663 80.647c4.464 4.464 11.677 4.48 16.138 0.016l232.999-233.015 60.893 140.423c2.026 4.7 6.96 7.449 12.036 6.742 2.547-0.362 4.778-1.507 6.476-3.222 1.744-1.728 2.922-4.025 3.236-6.599l45.731-349.71c0.439-3.52-0.771-7.040-3.254-9.555-2.499-2.483-6.032-3.709-9.552-3.236zM772.869 690.861l140.407-60.89c4.7-2.013 7.452-6.963 6.742-12.009-0.346-2.544-1.507-4.809-3.238-6.487-1.715-1.744-4.022-2.938-6.569-3.238l-349.726-45.728c-3.52-0.457-7.037 0.752-9.539 3.254-2.496 2.483-3.709 6.035-3.238 9.539l45.712 349.726c0.662 5.075 4.653 9.098 9.728 9.805 5.059 0.707 10.012-2.058 12.052-6.758l60.893-140.423 232.983 232.999c4.464 4.464 11.679 4.464 16.138 0l80.649-80.663c4.464-4.464 4.48-11.69 0.016-16.122l-233.010-233.004zM236.343 333.157l-140.423 60.885c-4.7 2.026-7.449 6.971-6.742 12.022 0.362 2.536 1.507 4.778 3.22 6.482 1.744 1.744 4.022 2.93 6.601 3.238l349.71 45.728c3.536 0.455 7.056-0.755 9.555-3.244 2.483-2.499 3.693-6.035 3.236-9.547l-45.71-349.72c-0.659-5.083-4.653-9.106-9.712-9.813-5.075-0.71-10.010 2.058-12.054 6.756l-60.893 140.418-232.999-233.007c-4.448-4.464-11.677-4.464-16.138 0l-80.647 80.663c-4.464 4.461-4.464 11.685 0 16.122l232.996 233.018z"
				],
				"attrs": [],
				"isMulticolor": false,
				"grid": 0,
				"tags": [
					"arrow498"
				]
			},
			"attrs": [],
			"properties": {
				"order": 35,
				"id": 10,
				"prevSize": 32,
				"code": 59652,
				"name": "padding"
			},
			"setIdx": 0,
			"setId": 6,
			"iconIdx": 4
		},
		{
			"icon": {
				"paths": [
					"M881.758 136.486h-739.231c-22.577 0-40.932-18.5-40.932-40.932v-54.624c0-22.577 18.5-40.93 40.932-40.93h738.94c22.577 0 40.93 18.5 40.93 40.93v54.624c0.44 22.723-18.060 40.932-40.639 40.932z",
					"M483.52 209.752c8.012-8.012 18.5-12.091 28.841-12.091 10.488 0 20.975 4.079 28.841 12.091l279.961 279.961c15.878 15.876 15.878 41.804 0 57.973l-38.746 38.746c-15.878 15.878-41.806 15.878-57.973 0l-143.914-144.060v540.695c0 22.578-18.5 40.932-40.93 40.932h-54.624c-22.577 0-40.932-18.207-40.932-40.932v-540.84l-144.058 144.060c-15.878 15.876-41.95 15.876-57.973 0l-38.746-38.746c-15.876-15.876-15.876-41.95 0-57.973l280.253-279.817z"
				],
				"attrs": [],
				"isMulticolor": false,
				"grid": 0,
				"tags": [
					"download168"
				]
			},
			"attrs": [],
			"properties": {
				"order": 30,
				"id": 9,
				"prevSize": 32,
				"code": 59653,
				"name": "margin-top"
			},
			"setIdx": 0,
			"setId": 6,
			"iconIdx": 5
		},
		{
			"icon": {
				"paths": [
					"M177.535 714.17l79.352-79.35c-44.551-26.915-85.026-60.828-119.499-100.913 52.242-60.751 118.228-107.426 191.425-136.795-11.239 25.062-17.636 52.777-17.636 82.026 0 29.707 6.615 57.814 18.194 83.188l64.082-64.073c-10.199-10.013-16.553-23.913-16.553-39.337 0-30.464 24.702-55.165 55.165-55.165 15.413 0 29.324 6.354 39.326 16.553l156.679-156.679c-37.957-7.493-76.78-11.579-116.072-11.579-192.706 0-375.4 93.352-488.712 249.724l-23.287 32.138 23.288 32.141c42.634 58.836 95.115 108.744 154.247 148.122z",
					"M821.938 338.288l-80.284 80.284c54.662 28.766 104.020 67.741 144.957 115.336-93.374 108.579-230.586 172.319-374.612 172.319-18.436 0-36.752-1.074-54.88-3.122l-93.746 93.746c48.154 12.327 98.019 18.919 148.626 18.919 192.706 0 375.411-93.351 488.712-249.733l23.288-32.141-23.288-32.14c-48.44-66.821-109.617-122.030-178.772-163.47z",
					"M512 679.963c110.911 0 200.824-89.914 200.824-200.825 0-10.002-0.975-19.752-2.39-29.358l-227.792 227.806c9.608 1.412 19.356 2.377 29.358 2.377z",
					"M445.355 668.405l502.12-502.132c24.241-24.241 24.241-63.545 0-87.788-12.118-12.116-28.010-18.184-43.894-18.184s-31.778 6.057-43.892 18.184l-779.238 779.238c-24.241 24.241-24.241 63.545 0 87.786 12.116 12.118 28.010 18.185 43.894 18.185s31.778-6.059 43.894-18.185l277.116-277.104z"
				],
				"attrs": [],
				"isMulticolor": false,
				"grid": 0,
				"tags": [
					"hide"
				]
			},
			"attrs": [],
			"properties": {
				"order": 29,
				"id": 8,
				"prevSize": 32,
				"code": 59654,
				"name": "hide"
			},
			"setIdx": 0,
			"setId": 6,
			"iconIdx": 6
		},
		{
			"icon": {
				"paths": [
					"M896 0h-256v128h192c35.36 0 64 28.672 64 64v192h128v-256c0-70.688-57.312-128-128-128zM0 128v256h128v-192c0-35.36 28.64-64 64-64h192v-128h-256c-70.688 0-128 57.312-128 128zM128 832v-192h-128v256c0 70.688 57.312 128 128 128h256v-128h-192c-35.36 0-64-28.64-64-64zM896 832c0 35.36-28.64 64-64 64h-192v128h256c70.688 0 128-57.312 128-128v-256h-128v192z"
				],
				"attrs": [],
				"isMulticolor": false,
				"grid": 0,
				"tags": [
					"rounded52"
				]
			},
			"attrs": [],
			"properties": {
				"order": 28,
				"id": 7,
				"prevSize": 32,
				"code": 59655,
				"name": "radius"
			},
			"setIdx": 0,
			"setId": 6,
			"iconIdx": 7
		},
		{
			"icon": {
				"paths": [
					"M0 18.689h314.167v209.275h-314.167v-209.275z",
					"M408.383 18.689h337.869v209.275h-337.869v-209.275z",
					"M836.896 18.689h187.104v209.275h-187.104v-209.275z",
					"M0 534.429h314.167v209.277h-314.167v-209.277z",
					"M408.383 534.429h337.869v209.277h-337.869v-209.277z",
					"M836.896 534.429h187.104v209.277h-187.104v-209.277z",
					"M0 275.316h187.102v209.275h-187.102v-209.275z",
					"M281.315 275.316h337.871v209.275h-337.871v-209.275z",
					"M709.83 275.316h314.17v209.275h-314.17v-209.275z",
					"M0 796.036h187.102v209.275h-187.102v-209.275z",
					"M281.315 796.036h337.871v209.275h-337.871v-209.275z",
					"M709.83 796.036h314.17v209.275h-314.17v-209.275z"
				],
				"attrs": [],
				"isMulticolor": false,
				"grid": 0,
				"tags": [
					"brick4"
				]
			},
			"attrs": [],
			"properties": {
				"order": 25,
				"id": 6,
				"prevSize": 32,
				"code": 59656,
				"name": "texture"
			},
			"setIdx": 0,
			"setId": 6,
			"iconIdx": 8
		},
		{
			"icon": {
				"paths": [
					"M799.973 1024h-575.879c-103.725 0-188.143-84.418-188.143-188.076v-647.781c0-103.725 84.418-188.143 188.143-188.143h575.879c103.725 0 188.076 84.418 188.076 188.143v647.781c-0 103.725-84.351 188.076-188.076 188.076zM224.094 86.881c-55.857 0-101.262 45.471-101.262 101.262v647.781c0 55.79 45.471 101.262 101.262 101.262h575.879c55.857 0 101.262-45.538 101.262-101.262v-647.781c0-55.857-45.471-101.262-101.262-101.262 0-0-575.879-0-575.879-0z"
				],
				"attrs": [],
				"isMulticolor": false,
				"grid": 0,
				"tags": [
					"unchecked2"
				]
			},
			"attrs": [],
			"properties": {
				"order": 20,
				"id": 1,
				"prevSize": 32,
				"code": 59657,
				"name": "box"
			},
			"setIdx": 0,
			"setId": 6,
			"iconIdx": 9
		},
		{
			"icon": {
				"paths": [
					"M832.427 131.2l-701.227 701.227c3.84 14.72 11.307 27.947 21.76 38.4l0.213 0.213c10.453 10.453 23.68 17.92 38.4 21.76l701.227-701.227c-7.893-29.44-30.933-52.48-60.373-60.373zM506.88 128l-378.88 378.88v120.747l499.627-499.627h-120.747zM213.333 128c-46.933 0-85.333 38.4-85.333 85.333v85.547l170.88-170.88h-85.547zM810.667 896c23.467 0 44.8-9.6 60.16-24.96 15.573-15.573 25.173-36.907 25.173-60.373v-85.547l-170.88 170.88h85.547zM396.373 896h120.747l378.88-378.88v-120.747l-499.627 499.627z"
				],
				"attrs": [],
				"isMulticolor": false,
				"grid": 0,
				"tags": [
					"ic_texture_48px"
				]
			},
			"attrs": [],
			"properties": {
				"order": 21,
				"id": 2,
				"prevSize": 32,
				"code": 59658,
				"name": "pattern"
			},
			"setIdx": 0,
			"setId": 6,
			"iconIdx": 10
		},
		{
			"icon": {
				"paths": [
					"M0 0h640v320h-320v320h-320zM384 384h640v640h-640zM384 384z"
				],
				"attrs": [
					{}
				],
				"isMulticolor": false,
				"grid": 0,
				"tags": [
					"102_Backward"
				]
			},
			"attrs": [
				{}
			],
			"properties": {
				"order": 23,
				"id": 4,
				"prevSize": 32,
				"code": 58880,
				"name": "back"
			},
			"setIdx": 0,
			"setId": 6,
			"iconIdx": 12
		},
		{
			"icon": {
				"paths": [
					"M704 384h320v640h-640v-320h320zM0 0h640v640h-640zM0 0z"
				],
				"attrs": [
					{}
				],
				"isMulticolor": false,
				"grid": 0,
				"tags": [
					"101_Forward"
				]
			},
			"attrs": [
				{}
			],
			"properties": {
				"order": 24,
				"id": 5,
				"prevSize": 32,
				"code": 58881,
				"name": "front"
			},
			"setIdx": 0,
			"setId": 6,
			"iconIdx": 13
		}
	],
	"height": 1024,
	"metadata": {
		"name": "dt-glyph-icon"
	},
	"preferences": {
		"showGlyphs": true,
		"showQuickUse": true,
		"showQuickUse2": true,
		"showSVGs": true,
		"fontPref": {
			"prefix": "dt-",
			"metadata": {
				"fontFamily": "dt-glyph-icon",
				"majorVersion": 1,
				"minorVersion": 0
			},
			"metrics": {
				"emSize": 1024,
				"baseline": 6.25,
				"whitespace": 50
			},
			"autoHost": true,
			"embed": false,
			"showSelector": true,
			"selector": "class",
			"classSelector": ".dt-icon",
			"ie7": false
		},
		"imagePref": {
			"prefix": "icon-",
			"png": true,
			"useClassSelector": true,
			"color": 4473924,
			"bgColor": 16777215
		},
		"historySize": 100,
		"showCodes": false,
		"quickUsageToken": {
			"UntitledProject": "OTIwNDE2NzlhM2NhYWE5MDAzOGRkZTg4ZTljYjJjNzAjMSMxNDM1MDkxNjA4IyMj"
		},
		"gridSize": 16
	}
}