name.colourloversRef;dominant;body;complement;bodyComplement;dominantBr;dominantDrk;On save click YES
grayscale.0000;#C0C0C0;#FFFFFF;#505050;#404040;;#303030;
alaska.0000;#40B3DF;#FFFFFF;#A8CB17;;;#17649A;
faraway.0000;#2790B0;#FFFFFF;#FFFFFF;;;;
summerForest.0000;#7AC916;#E8E8E8;#035215;;;;
gaillac.7852;#4E2008;#EFEACC;#7A6A46;;#A23607;;
havane.7852;#7A6A46;#EFEACC;#4E2008;;#EFEACC;;
brooklyn.7818;#DED4B9;#FFFFFF;#CE534D; #64B6B1;#EFEACC;#46433A;
brooklyn2.7818;#64B6B1;#DED4B9;#CE534D; #46433A;;;
camel.0000;#72B6DF;#FFECD1;#DFB172;#926E3C;;#2E6C92;
narfstuff.7807;#E8B0AF;#FFF3E5;#F1D5A5;#E1B898;;;
c2n.7553;#004276;#FFFFFF;#E6E6E6;#CC0000;;;
notcot.7550;#97D38B;#FFFFFF;#000000;#2C2E2E;;;
samandra.7549;#0B3736;#FFFFFF;#DFDFE1;#252322;;;
joy.7539;#D4C99E;#F4F2E5;#019FCC;#1E1A11;#EAE5CE;;
life.7530;#275B84;#E0E0E0;#E7EEF3;#9E9FA3;;;
beauty.7536;#83CDE1;#FFFFFF;#000000;#58B2CB;#A2DCEA;#58B2CB;
den.7528;#969184;#FFFFFF;#F4EEDD;#F49021;;;
wonk.7385;#970000;#FFFFFF;#220000;;;;
tbox.7390;#4B5D67;#FFFFFF;#FF8F05;#FF8F05;;#2D383E;
kendo.000;#F37E19;#FFFFFF;#21242C;#21242C;;;
mood.0000;#EBF0F4;#FFFFFF;#E74C3C;;;#3E454C;
