{contents:[
{	
	name:"accounting-1",
	headline:{ 
		h1:"We Reinvent",
		h2:"Financial and Bookkeeping Services",
		button:"See How"
	},
	
	pageHeadline:{ 
		h1:"A Full Online Approach",
		tagline:"Take control of your business with our online services"
	},
	
	blocs:[
	{
		title:"Financial Services",
		text:"lorem",
		image:"square-127",
		imageType:"circular"
	},
	{
		title:"Bookkeeping",
		text:"lorem",
		image:"square-106",
		imageType:"circular"
			
	},
	{
		title:"Cashflow Audit",
		text: "lorem",
		image:"square-125",
		imageType:"circular"
	},
	{
		title:"E-Billing",
		text:"lorem",
		image:"square-100",
		imageType:"circular"
	}
	]
}, 
{	
	name:"service-1",
	headline:{ 
		h1:"Innovative",
		h2:"Solutions To Boost Your Business Efficiency",
		button:"Learn more"
	},
	
	pageHeadline:{ 
		h1:"A Global Business Approach",
		h2:"We help you to meet your objectives"
	},
	
	blocs:[
	{
		title:"What We Do",
		text:"lorem",
		image:"panoramic-108"
	},
	{
		title:"Our Process",
		text:"lorem",
		image:"panoramic-115"		
	},
	{
		title:"Our Clients",
		text: "lorem",
		image:"panoramic-109"	
	},
	{
		title:"Solutions and Product",
		text:"lorem",
		image:"panoramic-117"			
	}
	]
},

{	
	name:"lawyer-1",
	headline:{ 
		h1:"Legal Assistance and Consulting Service",
		h2:"Your Best Legal Partner",
		tagline:"We are one of the main Chicago, IL law firm. We help businesses on all legal concerns.",
		button:"Learn more"
	},
	
	pageHeadline:{ 
		h2:"25 years of experience in legal consulting"
	},
	blocs:[
	{
		title:"Expertise",
		text:"lorem",
		image:"standard-133"
	},
	{
		title:"Assistance",
		text:"lorem",
		image:"standard-130"				
	},
	{
		title:"Legal audit",
		text: "lorem",
		image:"standard-116"

	},
	{
		title:"Solutions",
		text:"lorem",
		image:"standard-135"			
	}
	]
},

{	
	name:"seo-1",
	headline:{ 
		h1:"The Best SEO Package For Your Website",
		button:"LEARN WHY"
	},
	pageHeadline:{ 
		h2:"Boost your traffic with our SEO tools suite"
	},
	blocs:[
	{
		title:"Traffic Watchdog",
		text:"lorem",
		image:"icon-black-118"
	},
	{
		title:"Traffic Booster",
		text:"lorem",
		image:"icon-black-130"
			
	},
	{
		title:"Tool Suite",
		text: "lorem",
		image:"icon-black-112"
	},
	{
		title:"Website audit",
		text:"lorem",
		image:"icon-black-143"
	}
	]
// end seo-1
},

{	
	name:"export-1",
	headline:{
		h1:"We Simplify Your Way To International Market",
		h2:"Grow Your Business Internationally",
		button:"SEE HOW"
	},
	pageHeadline:{ 
		h2:"Our company helps local business to grow internationally"  
	},
	blocs:[
	{
		title:"Offices Worldwide",
		text:"lorem",
		image:"icon-black-126"
	},
	{
		title:"Dedicated team",
		text:"lorem",
		image:"icon-black-100"
			
	},
	{
		title:"Proven Efficiency",
		text: "lorem",
		image:"icon-black-151"
	},
	{
		title:"Go Faster",
		text:"lorem",
		image:"icon-black-140"
	}
	]
// end export-1
}


 

]}


